Examining Data with glimpse()
…
# Import Data
volcano_raw_tbl <- readr::read_csv('https://raw.githubusercontent.com/rfordatascience/tidytuesday/master/data/2020/2020-05-12/volcano.csv')

Data Examimation with print()

The tidyverse version of a data.frame is a tibble and when printed to the RStudio console they provide an overview of your data.

When our data has only a few columns the tibble printed to the console is awesome! The user gets a quick overview of their data e.g., data-types, column count, etc.

Let’s filter our volcano data to see what this in action.

# Slice data to limit the view
print(volcano_raw_tbl[ , 0:4], n = 3)

## # A tibble: 958 x 4
##   volcano_number volcano_name primary_volcano_type last_eruption_year
##            <dbl> <chr>        <chr>                <chr>             
## 1         283001 Abu          Shield(s)            -6850             
## 2         355096 Acamarachi   Stratovolcano        Unknown           
## 3         342080 Acatenango   Stratovolcano(es)    1972              
## # … with 955 more rows

That’s awesome!

A clean view is returned that with information that allows the user to quickly examine there data. But what about if our data has many columns as is the case with the Volcanos Data?

print(volcano_raw_tbl, n = 5)

## # A tibble: 958 x 26
##   volcano_number volcano_name primary_volcano… last_eruption_y… country region
##            <dbl> <chr>        <chr>            <chr>            <chr>   <chr> 
## 1         283001 Abu          Shield(s)        -6850            Japan   Japan…
## 2         355096 Acamarachi   Stratovolcano    Unknown          Chile   South…
## 3         342080 Acatenango   Stratovolcano(e… 1972             Guatem… Méxic…
## 4         213004 Acigol-Nevs… Caldera          -2080            Turkey  Medit…
## 5         321040 Adams        Stratovolcano    950              United… Canad…
## # … with 953 more rows, and 20 more variables: subregion <chr>, latitude <dbl>,
## #   longitude <dbl>, elevation <dbl>, tectonic_settings <chr>,
## #   evidence_category <chr>, major_rock_1 <chr>, major_rock_2 <chr>,
## #   major_rock_3 <chr>, major_rock_4 <chr>, major_rock_5 <chr>,
## #   minor_rock_1 <chr>, minor_rock_2 <chr>, minor_rock_3 <chr>,
## #   minor_rock_4 <chr>, minor_rock_5 <chr>, population_within_5_km <dbl>,
## #   population_within_10_km <dbl>, population_within_30_km <dbl>,
## #   population_within_100_km <dbl>
…
Let’s subset some of these data for exploration

I’ve done GIS work before and so I’m really interested in mapping some of these data.

The population counts based on proximity to volcanoes sounds really interesting so let’s start there.

volcano_raw_subset_tbl <- volcano_raw_tbl %>% 
    select(contains('volcano_n'), country, contains('tude'), contains('population'))

volcano_raw_subset_tbl

## # A tibble: 958 x 9
##    volcano_number volcano_name country latitude longitude population_with…
##             <dbl> <chr>        <chr>      <dbl>     <dbl>            <dbl>
##  1         283001 Abu          Japan       34.5     132.              3597
##  2         355096 Acamarachi   Chile      -23.3     -67.6                0
##  3         342080 Acatenango   Guatem…     14.5     -90.9             4329
##  4         213004 Acigol-Nevs… Turkey      38.5      34.6           127863
##  5         321040 Adams        United…     46.2    -121.                 0
##  6         283170 Adatarayama  Japan       37.6     140.               428
##  7         221170 Adwa         Ethiop…     10.1      40.8              101
##  8         221110 Afdera       Ethiop…     13.1      40.9               51
##  9         284160 Agrigan      United…     18.8     146.                 0
## 10         342100 Agua         Guatem…     14.5     -90.7             9890
## # … with 948 more rows, and 3 more variables: population_within_10_km <dbl>,
## #   population_within_30_km <dbl>, population_within_100_km <dbl>
…
Any duplicated records?

looks like all the vol-nums are unique, and:
* names are’nt suprising to be dups (diff countries?)
* country, name should show no dups (but there is one)
* let’s research that…

…

volcano_raw_subset_tbl %>% count(volcano_number, sort = T)

## # A tibble: 958 x 2
##    volcano_number     n
##             <dbl> <int>
##  1         210010     1
##  2         210020     1
##  3         210030     1
##  4         210040     1
##  5         211003     1
##  6         211004     1
##  7         211010     1
##  8         211020     1
##  9         211030     1
## 10         211040     1
## # … with 948 more rows
…
